{
    "list": [
       {
          "name":"React Custom Hooks — Let’s implement our own useReducer",
          "url":"https://medium.com/recraftrelic/react-custom-hooks-lets-implement-our-own-usereducer-fb166ca9dd96",
          "date":"Apr 20, 2021"
       },
       {
          "name":"Building a client-side search recommendations system",
          "url":"https://medium.com/workerb/building-a-client-side-search-recommendations-system-75fa6918dae4",
          "date":"Aug 04, 2020"
       },
       {
          "name":"Automating ReactJS app deployment using Gitlab",
          "url":"https://medium.com/recraftrelic/automating-reactjs-app-deployment-using-gitlab-12e0bf92461b",
          "date":"Dec 16, 2019"
       },
       {
          "name":"useState and useEffect explained",
          "url":"https://medium.com/recraftrelic/usestate-and-useeffect-explained-cdb5dc252baf",
          "date":"Apr 30, 2019"
       },
       {
          "name":"What are HTML Custom Elements",
          "url":"https://medium.com/recraftrelic/what-are-html-custom-elements-c6ffea9c4244",
          "date":"Jan 17, 2019"
       }
    ]
}

